…
Let's start with the data. We want to know which state has seen the most ufos, which means we want the total number of observations for each state.

To do this, we're going to use the count function. We give it a column name, (a variable), and it will count the rows, (observations), according to each value in the column.

<p class = "note"> This works well with a discrete variable but would not work well with a [continuous variable](https://www.youtube.com/watch?v=_yAQb8gWBpU). </p>


```r
ufos %>% 
  count(state)
```

```
## # A tibble: 52 x 2
##    state     n
##    <chr> <int>
##  1 ak      319
##  2 al      642
##  3 ar      588
##  4 az     2414
##  5 ca     8912
##  6 co     1413
##  7 ct      892
##  8 dc        7
##  9 de      166
## 10 fl     3835
## # ... with 42 more rows
```
…
However, R is a positional language  when it comes to functions, meaning we don't have to write out what each entry is in the count function, if we give it the correct pieces in order, i.e. `count(ufos, state)`.

<br>

Let's arrange the data so we can see which states have the most observations. We will use a pipe so we don't have to save our data in a variable. Since `arrange()` automatically sorts from least to greatest, we will use `desc()` to flip this.


```r
ufos %>% 
  count(state) %>% 
  arrange(desc(n))
```

```
## # A tibble: 52 x 2
##    state     n
##    <chr> <int>
##  1 ca     8912
##  2 wa     3966
##  3 fl     3835
##  4 tx     3447
##  5 ny     2980
##  6 il     2499
##  7 az     2414
##  8 pa     2366
##  9 oh     2275
## 10 mi     1836
## # ... with 42 more rows
```
…
